0	1	2	3	4	5	6	10	11	12	13	15	16	17	18	19	20	21	24	25	26	27	29	30	31	32	35	37	39	40	41	42	44	45	46	47	48	51	52	53	54	55	56	57	58	59	60	61	62	63	64	65	66	67	68	69	70	71	72	73	74	76	77	78	79	82	84	85	86	88	89	93	94	95	96	98	99	100	102	103	104	105	107	111	113	123	125	126	127	128	129	134	135	136	137	138	139	140	141	142	143	144	145	146	147	148	150	154	155	156	158	159	160	161	163	164	165	170	178	179	180	181	182	184	185	187	188	189	192	194	198	199	200	201	202	203	204	205	206	207	208	211	213	214	215	219	221	226	227	228	230	231	234	238	241	242	246	247	250	251	252	253	265	274	276	277	278	279	280	281	282	283	284	286	287	289	290	291	292	293	294	295	296	297	298	299	300	304	309	310	311	314	315	316	317	318	319	320	322	323	325	326	327	328	332	334	336	338	341	343	345	346	347	348	349	350	352	353	355	356	357	360	361	363	365	367	368	369	372	373	375	376	378	379	380	381	382	383	386	387	389	390	391	393	394	395	398	399	401	402	404	405	406	407	408	410	411	412	414	415	416	417	426	427	429	430	436	441	442	443	444	445	453	454	457	458	459	460	463	464	465	466	467	468	469	470	471	472	473	474	475	476	477	478	479	480	482	489	490	491	492	493	494	495	496	497	498	499	500	503	504	505	508	509	510	512	513	514	515	516	517	518	519	520	522	523	524	525	526	527	528	529	531	533	535	540	541	542	543	544	545	546	547	548	549	550	551	552	553	554	555	556	557	558	559	561	562	563	564	566	567	568	570	574	575	576	581	584	585	593	594	596	597	598	599	600	602	605	606	608	609	610	611	612	613	614	616	617	618	619	620	621	622	624	625	627	631	633	634	635	636	638	639	641	642	643	644	645	646	647	654	656	657	658	659	660	661	662	663	664	665	667	672	674	675	676	677	678	680	681	683	684	685	686	687	688	689	691	692	693	697	699	701	703	707	709	710	711	713	715	717	718	719	720	727	728	730	731	732	733	738	742	743	744	745	746	747	749	750	751	752	755	756	757	763	765	769	772	774	776	777	778	779	780	783	787	788	789	790	791	792	793	794	795	797	798	799	802	804	808	809	810	811	812	813	814	815	816	817	822	823	824	825	826	831	832	836	837	840	841	842	843	844	845	846	847	848	849	850	852	853	854	859	861	862	865	867	870	875	876	877	878	879	880	881	883	884	885	886	887	888	890	891	892	896	898	899	901	903	904	906	914	915	916	917	918	919	923	925	926	927	928	929	930	932	933	935	936	944	950	951	953	956	957	958	960	961	962	963	964	965	966	967	969	970	971	972	973	974	975	976	977	978	981	983	984	985	986	987	988	989	990	991	993	994	995	996	997	998	999	1000	1001	1002	1003	1004	1005	1006	1007	1008	1009	1010	1011	1012	1013	1014	1015	1016	1017	1018	1019	1020	1022	1023	1024	1025	1026	1027	1034	1037	1038	1040	1041	1042	1044	1045	1046	1047	1048	1050	1052	1053	1054	1055	1061	1064	1065	1066	1067	1068	1069	1070	1071	1072	1073	1074	1078	1081	1082	1083	1084	1086	1088	1092	1093	1094	1095	1097	1098	1099	1100	1101	1102	1103	1105	1107	1108	1109	1110	1113	1114	1115	1116	1118	1119	1120	1123	1124	1126	1129	1131	1132	1133	1134	1135	1136	1139	1143	1144	1145	1146	1148	1149	1150	1152	1154	1155	1156	1159	1162	1163	1164	1165	1166	1167	1173	1174	1175	1176	1178	1179	1180	1181	1182	1183	1184
7	8	23	28	43	49	50	75	81	90	92	114	116	117	118	119	120	124	133	149	151	152	153	157	166	167	168	169	171	172	174	175	177	183	186	190	191	196	197	216	223	224	225	232	233	235	236	237	239	243	244	248	249	254	255	256	261	262	263	267	268	269	270	271	272	301	302	303	312	313	329	330	331	333	337	339	340	354	358	362	364	366	370	374	385	388	392	396	397	400	403	418	419	420	421	422	423	424	425	428	450	455	461	481	483	485	486	487	488	501	506	507	521	532	536	537	538	560	569	571	572	573	577	578	580	582	586	587	588	589	590	591	592	601	604	607	615	623	626	629	630	632	637	640	650	653	655	666	668	669	670	671	673	679	682	690	694	695	696	700	702	704	705	706	708	714	716	721	723	724	725	726	729	739	740	741	748	754	758	759	760	761	762	764	766	767	768	770	771	773	781	782	796	800	801	803	805	806	818	819	820	821	827	828	829	830	833	838	857	864	866	868	871	872	873	874	882	893	894	895	897	900	902	905	907	908	909	910	911	912	913	920	921	922	924	937	938	939	941	943	945	946	947	948	949	959	968	979	1021	1030	1031	1032	1033	1035	1036	1043	1058	1059	1060	1085	1087	1089	1090	1091	1096	1106	1111	1117	1121	1122	1125	1127	1128	1137	1141	1142	1153	1157	1158	1160	1168	1169	1170	1172	1177
33	34	83	87	97	101	106	108	109	110	115	122	130	131	132	193	195	245	273	305	321	324	342	344	439	462	484	511	565	698	735	736	737	775	784	785	834	835	839	858	860	940	980	982	992	1075	1076	1077	1130	1138	1140	1171
36	38	80	91	121	176	220	222	240	257	258	264	266	288	335	351	384	409	534	579	628	648	649	651	652	712	722	734	786	807	851	856	1056	1057	1063	1104	1147
112	209	229	371	377	413	431	432	456	530	539	595	855	869	889	931	934	942	955	1028	1029	1062	1079	1080	1151	1161
9	14	162	173	210	212	217	218	259	260	275	285	306	307	308	502	583	603	863
954	1049	1051
22	359	433	434	435	437	438	440	446	447	448	449	451	452	753	952	1039	1112	
